{
  "project_info": {
    "project_number": "1040214473184",
    "firebase_url": "https://rollcall-f3658.firebaseio.com",
    "project_id": "rollcall-f3658",
    "storage_bucket": "rollcall-f3658.appspot.com"
  },
  "client": [
    {
      "client_info": {
        "mobilesdk_app_id": "1:1040214473184:android:75147ec7d3508ac8",
        "android_client_info": {
          "package_name": "com.superman.rollcall"
        }
      },
      "oauth_client": [
        {
          "client_id": "1040214473184-43kncusru6g41b3mqblf1u5fg00cecqd.apps.googleusercontent.com",
          "client_type": 3
        }
      ],
      "api_key": [
        {
          "current_key": "AIzaSyDLq0w5FoNWW7tTO9_UecZtKw8u4q2Auus"
        }
      ],
      "services": {
        "analytics_service": {
          "status": 1
        },
        "appinvite_service": {
          "status": 1,
          "other_platform_oauth_client": []
        },
        "ads_service": {
          "status": 2
        }
      }
    }
  ],
  "configuration_version": "1"
}