{
  "type": "service_account",
  "project_id": "rollcall-f3658",
  "private_key_id": "8bcc424051f26fadbfa2fcac4f56e320864e42a6",
  "private_key": "-----BEGIN PRIVATE KEY-----\nMIIEvgIBADANBgkqhkiG9w0BAQEFAASCBKgwggSkAgEAAoIBAQCqhG3OkidMQJBb\nzCQRism1a2KVYbJpJHOTbggl0Dng10PAIf8MHeStrNB8JvHDWlL8jnd1KLh/V7kc\nfI4bvxORgwIrGm9032QxbgVDUi34uGnsJUDg6XC9DEwcZzlWxhrN+kvU59/MGgFi\nTv2CLDr1G6qGmYTjii0Xqqe4CsqMt992ZE6KSHc88n3UkeLpHTPd6OTcf67rny/T\n2NvZ1rZ/XNj4laiVr0kIt5dQKePk7DVK4iZnz1AXoGfQX1TH4+RVCflcyjha9n0q\nR9yhkIU4HW4n/ZfXXxTlPYdYIC8MIHIfIQNSxius5fET1v/6zhddpQ9WKUhp/5is\np0K0Ye6VAgMBAAECggEAJs1QVHmvLhuiDfWX/pLrwBgR3KbY67KjBzk6auplhUvO\n672AtX/m7ft9jMbq7HaVHEoKFnO/+iBa7AfO6bLzL8FVYLwZAUolWVctJOriMa87\nUUSP7S5J3IccGbmGk3+skVMj5uyl4WLIjlelufW5K9YSGaN9GS80ACbyGAACo/8D\naDt8T6tylbZCBxKTBsWw1hy/Gkgx/VHVy8tM3foOwQ7+4h6QglAwAk8lgAD/ww9h\nRL8csK06ns35sc7vXDh/EK80m5laGzzUH0JgyVd0YCe47WWZ9n2D4u1GJr9YJHlR\nmPCFIlNGF1sEpeYIuwDPOwNEbI+1I++bSj4xx4B8AQKBgQDSiApDRkcO1P75doki\nFvZGoAstfYhsN/W9fxemak/hcJw2YpOy6o9eeIhUJwemAwsS7sht987DiNubtVTs\n6rbo8yy6s/JEMp9aY1cdwD0Pki7clgvtxQ4CM1gcLP0WZcuHt8tm9hkzsMlFl4lJ\nlZc88hxj1uNd1UxBeGSNQttilQKBgQDPWBHt25OKm0EdqpjKerjg17f9ja2ITzfo\nuOzIHkBkYxAhr1dYWm/kIndAQc4203zWKHENo9cjw2knElkhUEWC8EoqjqqL2fqd\nI4Qu4UDSe+dZVAANQ2yuqU95B5Yk8q2KzDvbN7++0NJn2DcprUoBomi88NG72BgW\nhWrJXHVcAQKBgQCnUXD+mHrewc7GijtgeWlPJeDcTXk/sJW//aLZIoLLw4iS/HMv\n7ZT12stWPhKpEKAbcuSd6SVNZ5ZJQKr3A29M4f65f0vagXT+DBdvUJn2pxJRQ3rF\nhCem/hFXizW1OD+yZBLmiE3tM+IyScXVUmr5B94iRuU6bMuG+NzJG8pppQKBgQDM\n7Hor34xevTsKGwWPeOMoNYv+6PvNcJ4NQFelIWD61n2nDSkChb94difuNhudTEBh\nWO8DUB7dldBjcVrt9ev9kYd7sC0Ws4VhsSx/ONlcLmFkhATZFv5fUa7eK4VVVxP1\nzgyKiPrVmIWbZLKAWmh+XQmvU0O2p8iG2a3E/cBwAQKBgFDaDsLxpn+zpx4DMo4p\nkr+Z6Z8cI5M9aWIHNVpxuBtswCf3Alab8rwu33noQ15kQTX/Olptjr9v7RL7XBKt\nixTAwo3waeI3dHNSfzsolG71ZwDNDjwiS7K4CvBGOfMEEG1OK3OEwCnIVnkNQ22U\nGGAu40nWd/Yi+2idCiL4pPOs\n-----END PRIVATE KEY-----\n",
  "client_email": "firebase-adminsdk-ka4jv@rollcall-f3658.iam.gserviceaccount.com",
  "client_id": "117567736741710167424",
  "auth_uri": "https://accounts.google.com/o/oauth2/auth",
  "token_uri": "https://oauth2.googleapis.com/token",
  "auth_provider_x509_cert_url": "https://www.googleapis.com/oauth2/v1/certs",
  "client_x509_cert_url": "https://www.googleapis.com/robot/v1/metadata/x509/firebase-adminsdk-ka4jv%40rollcall-f3658.iam.gserviceaccount.com"
}
