<svg xmlns="http://www.w3.org/2000/svg" viewBox="0 0 13.985 9.981">
  <defs>
    <style>
      .cls-1 {
        fill: #b88a64;
      }
    </style>
  </defs>
  <path id="check_mark" data-name="check mark" class="cls-1" d="M4.062,9.659.331,6.028a1.079,1.079,0,0,1,0-1.556,1.151,1.151,0,0,1,1.6,0L4.861,7.325l7.195-7a1.153,1.153,0,0,1,1.6,0,1.079,1.079,0,0,1,0,1.556L5.66,9.659a1.151,1.151,0,0,1-1.6,0Z"/>
</svg>
