<svg xmlns="http://www.w3.org/2000/svg" viewBox="0 0 13.142 16.776">
  <defs>
    <style>
      .cls-1 {
        fill: #67cb76;
      }
    </style>
  </defs>
  <g id="file" transform="translate(-6.5)">
    <path id="Path_7205" data-name="Path 7205" class="cls-1" d="M23.77,22H16.78a.28.28,0,0,0,0,.559h6.99a.28.28,0,1,0,0-.559Z" transform="translate(-7.204 -15.849)"/>
    <path id="Path_7206" data-name="Path 7206" class="cls-1" d="M16.78,14.559h2.8a.28.28,0,0,0,0-.559h-2.8a.28.28,0,0,0,0,.559Z" transform="translate(-7.204 -10.085)"/>
    <path id="Path_7207" data-name="Path 7207" class="cls-1" d="M23.77,30H16.78a.28.28,0,0,0,0,.559h6.99a.28.28,0,1,0,0-.559Z" transform="translate(-7.204 -21.612)"/>
    <path id="Path_7208" data-name="Path 7208" class="cls-1" d="M23.77,38H16.78a.28.28,0,0,0,0,.559h6.99a.28.28,0,0,0,0-.559Z" transform="translate(-7.204 -27.375)"/>
    <path id="Path_7209" data-name="Path 7209" class="cls-1" d="M23.77,46H16.78a.28.28,0,0,0,0,.559h6.99a.28.28,0,0,0,0-.559Z" transform="translate(-7.204 -33.138)"/>
    <path id="Path_7210" data-name="Path 7210" class="cls-1" d="M15.563,0H6.5V16.777H19.642V4.078Zm.164.955,2.96,2.96h-2.96ZM7.059,16.217V.559h8.109V4.474h3.915V16.217Z"/>
  </g>
</svg>
