<svg xmlns="http://www.w3.org/2000/svg" viewBox="0 0 14.896 14.896">
  <defs>
    <style>
      .cls-1 {
        fill: #ab0104;
      }
    </style>
  </defs>
  <g id="Group_4331" data-name="Group 4331" transform="translate(-315.429 -247.429)">
    <path id="Path_4069" data-name="Path 4069" class="cls-1" d="M128.434,135.262a.5.5,0,0,0,.355.152.487.487,0,0,0,.355-.152l2.756-2.756,2.756,2.756a.5.5,0,0,0,.355.152.487.487,0,0,0,.355-.152.515.515,0,0,0,0-.719l-2.747-2.747,2.747-2.756a.515.515,0,0,0,0-.719.508.508,0,0,0-.719,0l-2.747,2.756-2.756-2.747a.508.508,0,1,0-.719.719l2.756,2.747-2.747,2.756A.49.49,0,0,0,128.434,135.262Z" transform="translate(190.977 123.081)"/>
    <path id="Path_4070" data-name="Path 4070" class="cls-1" d="M7.448,14.9A7.448,7.448,0,1,0,0,7.448,7.454,7.454,0,0,0,7.448,14.9Zm0-13.881A6.433,6.433,0,1,1,1.014,7.448,6.436,6.436,0,0,1,7.448,1.014Z" transform="translate(315.429 247.429)"/>
  </g>
</svg>
