<svg id="Group_4324" data-name="Group 4324" xmlns="http://www.w3.org/2000/svg" viewBox="0 0 36.694 28.048">
  <defs>
    <style>
      .cls-1 {
        fill: #fff;
      }
    </style>
  </defs>
  <path id="Path_2474" data-name="Path 2474" class="cls-1" d="M22.522,16.657a.519.519,0,0,1-.444-.159L15.272,9.645a.626.626,0,0,1,0-.956.532.532,0,0,1,.888,0l6.806,6.853a.626.626,0,0,1,0,.956.519.519,0,0,1-.444.159Zm0,0" transform="translate(7.218 5.016)"/>
  <path id="Path_2475" data-name="Path 2475" class="cls-1" d="M4.9,16.637a.519.519,0,0,1-.444-.159c-.3-.319-.148-.637,0-.956l6.806-6.853c.3-.319.592-.159.888,0,.3.319.148.637,0,.956L5.343,16.477a.519.519,0,0,1-.444.159Zm0,0" transform="translate(2.055 5.037)"/>
  <path id="Path_2476" data-name="Path 2476" class="cls-1" d="M33.735,28.048H2.959A3.089,3.089,0,0,1,0,24.861V3.187A3.089,3.089,0,0,1,2.959,0H33.735a3.089,3.089,0,0,1,2.959,3.187V24.861a3.089,3.089,0,0,1-2.959,3.187ZM2.959,1.275A1.779,1.779,0,0,0,1.184,3.187V24.861a1.779,1.779,0,0,0,1.776,1.912H33.735a1.779,1.779,0,0,0,1.776-1.912V3.187a1.779,1.779,0,0,0-1.776-1.912H2.959Zm0,0"/>
  <path id="Path_2477" data-name="Path 2477" class="cls-1" d="M18.131,16.885a3.8,3.8,0,0,1-2.219-.8L.672,1.745c-.3-.159-.3-.637,0-.956C.82.47,1.264.47,1.56.789L16.8,15.132a2.305,2.305,0,0,0,2.811,0L34.85.948a.884.884,0,0,1,.888,0,1.085,1.085,0,0,1,0,.956L20.5,16.088a3.544,3.544,0,0,1-2.367.8Zm0,0" transform="translate(0.216 0.326)"/>
</svg>
