<svg xmlns="http://www.w3.org/2000/svg" viewBox="0 0 29.131 19.415">
  <defs>
    <style>
      .cls-1 {
        opacity: 0.3;
      }
    </style>
  </defs>
  <g id="Group_4336" data-name="Group 4336" class="cls-1">
    <path id="Path_4073" data-name="Path 4073" d="M26.094,19.415H3.032A3.035,3.035,0,0,1,0,16.383V3.032A3.035,3.035,0,0,1,3.032,0H26.088a3.036,3.036,0,0,1,3.038,3.032V16.383A3.035,3.035,0,0,1,26.094,19.415ZM3.032,1.212a1.826,1.826,0,0,0-1.82,1.82V16.383a1.826,1.826,0,0,0,1.82,1.82H26.088a1.826,1.826,0,0,0,1.82-1.82V3.032a1.826,1.826,0,0,0-1.82-1.82Z"/>
    <path id="Path_4074" data-name="Path 4074" d="M28.517,68.852H.609A.609.609,0,0,1,0,68.244V64.6A.608.608,0,0,1,.609,64H28.523a.609.609,0,0,1,.609.609v3.641A.613.613,0,0,1,28.517,68.852ZM1.212,67.641h26.7V65.212H1.212Z" transform="translate(0 -60.359)"/>
    <path id="Path_4075" data-name="Path 4075" d="M71.89,214.517H64.609a.609.609,0,0,1,0-1.217H71.89a.609.609,0,0,1,0,1.217Z" transform="translate(-60.359 -201.166)"/>
    <path id="Path_4076" data-name="Path 4076" d="M71.89,257.117H64.609a.609.609,0,0,1,0-1.217H71.89a.609.609,0,0,1,0,1.217Z" transform="translate(-60.359 -241.343)"/>
    <path id="Path_4077" data-name="Path 4077" d="M365.732,196.852H364.52a1.826,1.826,0,0,1-1.82-1.82V193.82a1.826,1.826,0,0,1,1.82-1.82h1.212a1.826,1.826,0,0,1,1.82,1.82v1.212A1.822,1.822,0,0,1,365.732,196.852Zm-1.212-3.641a.609.609,0,0,0-.609.609v1.212a.609.609,0,0,0,.609.609h1.212a.609.609,0,0,0,.609-.609V193.82a.609.609,0,0,0-.609-.609Z" transform="translate(-342.067 -181.078)"/>
  </g>
</svg>
