<svg xmlns="http://www.w3.org/2000/svg" viewBox="0 0 20.092 15.882">
  <defs>
    <style>
      .cls-1 {
        fill: #fff;
      }
    </style>
  </defs>
  <path id="Path_7721" data-name="Path 7721" class="cls-1" d="M17.78,15.882H2.319A2.32,2.32,0,0,1,0,13.563V4.134A2.32,2.32,0,0,1,2.319,1.815H5.475L5.754.881A1.149,1.149,0,0,1,6.876,0h6.341a1.167,1.167,0,0,1,1.13.889l.008.03.249.9h3.17a2.32,2.32,0,0,1,2.319,2.319v9.421a2.311,2.311,0,0,1-2.312,2.327ZM2.319,2.591A1.554,1.554,0,0,0,.768,4.142v9.421a1.554,1.554,0,0,0,1.551,1.551H17.773a1.554,1.554,0,0,0,1.551-1.551V4.134a1.554,1.554,0,0,0-1.551-1.551H14.015l-.422-1.514a.387.387,0,0,0-.377-.3H6.876a.387.387,0,0,0-.377.3L6.055,2.583H2.319Zm7.734,10.95a4.918,4.918,0,1,1,4.91-4.918,4.924,4.924,0,0,1-4.91,4.918Zm0-9.052A4.142,4.142,0,1,0,14.2,8.63a4.149,4.149,0,0,0-4.142-4.142Zm7.222-.459a.715.715,0,1,0,.715.715.71.71,0,0,0-.715-.715Zm0,0"/>
</svg>
