<svg xmlns="http://www.w3.org/2000/svg" viewBox="0 0 20.016 20.017">
  <defs>
    <style>
      .cls-1 {
        fill: #67cb76;
        stroke: #fff;
        stroke-width: 0.3px;
      }
    </style>
  </defs>
  <path id="Union_2" data-name="Union 2" class="cls-1" d="M3399-4657.142a9.865,9.865,0,0,1,9.858-9.858,9.864,9.864,0,0,1,9.857,9.858,9.864,9.864,0,0,1-9.857,9.858A9.865,9.865,0,0,1,3399-4657.142Zm1.551,0a8.318,8.318,0,0,0,8.308,8.308,8.326,8.326,0,0,0,8.308-8.308,8.318,8.318,0,0,0-8.308-8.308A8.31,8.31,0,0,0,3400.551-4657.142Zm10.375,4.225-3.321-2.583a.773.773,0,0,1-.3-.608v-5.684a.778.778,0,0,1,.775-.775.778.778,0,0,1,.775.775v5.311l3.01,2.351a.768.768,0,0,1,.143,1.086.757.757,0,0,1-.608.3A.819.819,0,0,1,3410.926-4652.917Z" transform="translate(-3398.85 4667.15)"/>
</svg>
